02 - The tidyverse
…
---

## Data import with [`readr`](https://readr.tidyverse.org/)

```r
bookings
```

```
## # A tibble: 10,000 x 8
##    booker_id property_id room_nights price_per_night checkin_day for_business status
##    <chr>           <dbl>       <dbl>           <dbl> <chr>       <lgl>        <chr> 
##  1 21593401~        2668           4            91.5 mon         FALSE        cance~
##  2 7f590fd6~        4656           5           107.  tue         FALSE        cance~
##  3 10f0f138~        4563           6            87.0 wed         FALSE        stayed
##  4 7b55021a~        4088           7            92.4 fri         FALSE        stayed
##  5 6694a79d~        2188           4           105.  tue         FALSE        stayed
##  6 d0358740~        4171           2           110.  fri         FALSE        cance~
##  7 944e568a~        2907           4           116.  fri         FALSE        stayed
##  8 95476c2e~        5141           4           111.  wed         FALSE        cance~
##  9 df235631~        1696           1           106.  wed         FALSE        stayed
## 10 ff610140~        1901           7            82.3 sat         FALSE        cance~
## # ... with 9,990 more rows, and 1 more variable: review_score <dbl>
```

---

## Data import with [`readr`](https://readr.tidyverse.org/)

```r
properties <- read_csv("../datasets/properties.csv")
properties
```

```
## # A tibble: 4,178 x 5
##    property_id destination property_type nr_rooms facilities                              
##          <dbl> <chr>       <chr>            <dbl> <chr>                                   
##  1        2668 Brisbane    Hotel               32 airport shuttle,free wifi,garden,breakf~
##  2        4656 Brisbane    Hotel               39 on-site restaurant,pool,airport shuttle~
##  3        4563 Brisbane    Apartment            9 laundry                                 
##  4        4088 Brisbane    Apartment            9 kitchen,laundry,free wifi               
##  5        2188 Brisbane    Apartment            4 parking,kitchen,bbq,free wifi,game cons~
##  6        4171 Brisbane    Apartment            5 kitchen,pool,laundry,parking,free wifi,~
##  7        2907 Brisbane    Hotel               22 airport shuttle,on-site restaurant,brea~
##  8        5141 Brisbane    Hotel               20 breakfast,free wifi,on-site restaurant,~
##  9        1696 Brisbane    Apartment            5 free wifi,laundry,pool,game console,par~
## 10        1901 Brisbane    Apartment           11 free wifi,bbq,laundry,breakfast,pool,pa~
## # ... with 4,168 more rows
```
…
]

.pull-right30[

<img src="figures/02-tidyverse//tibble.png" width="100%" />

]

```
## # A tibble: 10,000 x 8
##    booker_id property_id room_nights price_per_night checkin_day for_business status
##    <chr>           <dbl>       <dbl>           <dbl> <chr>       <lgl>        <chr> 
##  1 21593401~        2668           4            91.5 mon         FALSE        cance~
##  2 7f590fd6~        4656           5           107.  tue         FALSE        cance~
##  3 10f0f138~        4563           6            87.0 wed         FALSE        stayed
##  4 7b55021a~        4088           7            92.4 fri         FALSE        stayed
##  5 6694a79d~        2188           4           105.  tue         FALSE        stayed
##  6 d0358740~        4171           2           110.  fri         FALSE        cance~
##  7 944e568a~        2907           4           116.  fri         FALSE        stayed
##  8 95476c2e~        5141           4           111.  wed         FALSE        cance~
##  9 df235631~        1696           1           106.  wed         FALSE        stayed
## 10 ff610140~        1901           7            82.3 sat         FALSE        cance~
## # ... with 9,990 more rows, and 1 more variable: review_score <dbl>
```
…
---

## Tibble vs. data frame

```r
as_tibble(iris)
```

```
## # A tibble: 150 x 5
##    Sepal.Length Sepal.Width Petal.Length Petal.Width Species
##           <dbl>       <dbl>        <dbl>       <dbl> <fct>  
##  1          5.1         3.5          1.4         0.2 setosa 
##  2          4.9         3            1.4         0.2 setosa 
##  3          4.7         3.2          1.3         0.2 setosa 
##  4          4.6         3.1          1.5         0.2 setosa 
##  5          5           3.6          1.4         0.2 setosa 
##  6          5.4         3.9          1.7         0.4 setosa 
##  7          4.6         3.4          1.4         0.3 setosa 
##  8          5           3.4          1.5         0.2 setosa 
##  9          4.4         2.9          1.4         0.2 setosa 
## 10          4.9         3.1          1.5         0.1 setosa 
## # ... with 140 more rows
```

---

## Tibble vs. data frame

Tibbles adjust to the available line width!

```r
as_tibble(iris)
```

```
## # A tibble: 150 x 5
##    Sepal.Length Sepal.Width Petal.Length
##           <dbl>       <dbl>        <dbl>
##  1          5.1         3.5          1.4
##  2          4.9         3            1.4
##  3          4.7         3.2          1.3
##  4          4.6         3.1          1.5
##  5          5           3.6          1.4
##  6          5.4         3.9          1.7
##  7          4.6         3.4          1.4
##  8          5           3.4          1.5
##  9          4.4         2.9          1.4
## 10          4.9         3.1          1.5
## # ... with 140 more rows, and 2 more variables:
## #   Petal.Width <dbl>, Species <fct>
```
…
---

## Select columns with `select()` &#x1F446;

.pull-left70[

Select the column `review_score`.

```r
select(bookings, review_score)
```

```
## # A tibble: 10,000 x 1
##    review_score
##           <dbl>
##  1        NA   
##  2        NA   
##  3         6.26
##  4         5.95
##  5         6.43
##  6        NA   
##  7         7.60
##  8        NA   
##  9         6.97
## 10        NA   
## # ... with 9,990 more rows
```
…
---

## Select columns with `select()` &#x1F446;

.pull-left70[

Select multiple columns by specifying column names as further arguments.

```r
select(bookings, review_score, status)
```

```
## # A tibble: 10,000 x 2
##    review_score status   
##           <dbl> <chr>    
##  1        NA    cancelled
##  2        NA    cancelled
##  3         6.26 stayed   
##  4         5.95 stayed   
##  5         6.43 stayed   
##  6        NA    cancelled
##  7         7.60 stayed   
##  8        NA    cancelled
##  9         6.97 stayed   
## 10        NA    cancelled
## # ... with 9,990 more rows
```
…
---

## Select columns with `select()` &#x1F446;

.pull-left70[

Negative selection: select all but specific columns using `-`.

```r
select(bookings, -booker_id)
```

```
## # A tibble: 10,000 x 7
##    property_id room_nights price_per_night checkin_day for_business status    review_score
##          <dbl>       <dbl>           <dbl> <chr>       <lgl>        <chr>            <dbl>
##  1        2668           4            91.5 mon         FALSE        cancelled        NA   
##  2        4656           5           107.  tue         FALSE        cancelled        NA   
##  3        4563           6            87.0 wed         FALSE        stayed            6.26
##  4        4088           7            92.4 fri         FALSE        stayed            5.95
##  5        2188           4           105.  tue         FALSE        stayed            6.43
##  6        4171           2           110.  fri         FALSE        cancelled        NA   
##  7        2907           4           116.  fri         FALSE        stayed            7.60
##  8        5141           4           111.  wed         FALSE        cancelled        NA   
##  9        1696           1           106.  wed         FALSE        stayed            6.97
## 10        1901           7            82.3 sat         FALSE        cancelled        NA   
## # ... with 9,990 more rows
```
…
--

```r
select(bookings, contains("id"), ends_with("night"))
```

```
## # A tibble: 10,000 x 3
##    booker_id                                property_id price_per_night
##    <chr>                                          <dbl>           <dbl>
##  1 215934017ba98c09f30dedd29237b43dad5c7b5f        2668            91.5
##  2 7f590fd6d318248a48665f7f7db529aca40c84f5        4656           107. 
##  3 10f0f138e8bb1015d3928f2b7d828cbb50cd0804        4563            87.0
##  4 7b55021a4160dde65e31963fa55a096535bcad17        4088            92.4
##  5 6694a79d158c7818cd63831b71bac91286db5aff        2188           105. 
##  6 d0358740d5f15e85523f94ab8219f25d8c017347        4171           110. 
##  7 944e568a0b511b9140bcc7c7c80c68c3edd3a86f        2907           116. 
##  8 95476c2ef6bb9e3c227b46f1283310737fa13b7a        5141           111. 
##  9 df235631a4c281c01e007b6a4c364e07f5843994        1696           106. 
## 10 ff610140227d40d27daa01f0dcd5d64ea82e833d        1901            82.3
## # ... with 9,990 more rows
```

---

## Filter rows with `filter()`

.pull-left70[

Filter bookings which stayed, i.e., didn't cancel.

```r
filter(bookings, status == "stayed")
```

```
## # A tibble: 7,775 x 8
##    booker_id property_id room_nights price_per_night checkin_day for_business status
##    <chr>           <dbl>       <dbl>           <dbl> <chr>       <lgl>        <chr> 
##  1 10f0f138~        4563           6            87.0 wed         FALSE        stayed
##  2 7b55021a~        4088           7            92.4 fri         FALSE        stayed
##  3 6694a79d~        2188           4           105.  tue         FALSE        stayed
##  4 944e568a~        2907           4           116.  fri         FALSE        stayed
##  5 df235631~        1696           1           106.  wed         FALSE        stayed
##  6 aeff2e2d~        2188           1           109.  wed         FALSE        stayed
##  7 5a1442f4~        2307           9            84.2 sat         FALSE        stayed
##  8 39804a2e~        2907           6           112.  sun         FALSE        stayed
##  9 e150e559~        2870           4           127.  sat         FALSE        stayed
## 10 4e9c7c21~        1674           5           102.  sun         FALSE        stayed
## # ... with 7,765 more rows, and 1 more variable: review_score <dbl>
```
…
## Filter rows with `filter()`

.pull-left70[

Combine multiple conditions with `&`.

```r
filter(bookings, status == "stayed" & 
         !is.na(review_score) & 
         between(price_per_night, 90, 120))
```

```
## # A tibble: 3,032 x 8
##    booker_id property_id room_nights price_per_night checkin_day for_business status
##    <chr>           <dbl>       <dbl>           <dbl> <chr>       <lgl>        <chr> 
##  1 7b55021a~        4088           7            92.4 fri         FALSE        stayed
##  2 6694a79d~        2188           4           105.  tue         FALSE        stayed
##  3 944e568a~        2907           4           116.  fri         FALSE        stayed
##  4 df235631~        1696           1           106.  wed         FALSE        stayed
##  5 39804a2e~        2907           6           112.  sun         FALSE        stayed
##  6 4e9c7c21~        1674           5           102.  sun         FALSE        stayed
##  7 8537874d~        4420           2           106.  sat         FALSE        stayed
##  8 0fcce2f5~        1951           3           110.  wed         FALSE        stayed
##  9 9864af3a~        1981           3            96.9 sun         FALSE        stayed
## 10 ccd24f99~        2307           3           115.  fri         FALSE        stayed
## # ... with 3,022 more rows, and 1 more variable: review_score <dbl>
```
…
1. _...using base `R` functions only._
2. _...using the `dplyr` functions `select()` and `filter()`._

03:00

---

## Sort rows with `arrange()`

```r
arrange(bookings, price_per_night) # default: sort in ascending order
```

```
## # A tibble: 10,000 x 8
##    booker_id property_id room_nights price_per_night checkin_day for_business status
##    <chr>           <dbl>       <dbl>           <dbl> <chr>       <lgl>        <chr> 
##  1 028c395e~        3096           1            39.4 tue         FALSE        stayed
##  2 037bec01~        3619           1            45.8 wed         TRUE         stayed
##  3 7341b69d~        3983           1            47.7 thu         TRUE         stayed
##  4 cbedb290~        1172           2            53.2 thu         TRUE         stayed
##  5 dff92642~        4354           6            54.2 fri         FALSE        stayed
##  6 b28ca9bd~        3118           2            54.8 sun         TRUE         stayed
##  7 e2aff0e6~        4116           5            55.7 tue         FALSE        stayed
##  8 28421366~        4391           4            56.6 fri         FALSE        stayed
##  9 a07a0a8a~        4150           2            57.7 sat         FALSE        cance~
## 10 97a4a1dc~        1172           2            61.0 tue         TRUE         stayed
## # ... with 9,990 more rows, and 1 more variable: review_score <dbl>
```

```r
arrange(bookings, desc(price_per_night))
```

```
## # A tibble: 10,000 x 8
##    booker_id property_id room_nights price_per_night checkin_day for_business status
##    <chr>           <dbl>       <dbl>           <dbl> <chr>       <lgl>        <chr> 
##  1 3d62487f~        4931           1            273. tue         TRUE         cance~
##  2 dc6add0d~        2305           1            272. fri         TRUE         stayed
##  3 c57c799c~        5034           1            263. tue         TRUE         stayed
##  4 0dbc70d9~        1819           1            259. fri         TRUE         cance~
##  5 1d0d33cc~        2306           1            257. fri         FALSE        cance~
##  6 6b70130a~        3916           1            256. tue         TRUE         stayed
##  7 c478924b~        2464           1            255. sun         FALSE        stayed
##  8 52779fc4~        3832           1            255. tue         TRUE         stayed
##  9 23a1258e~        1971           1            254. tue         TRUE         stayed
## 10 58a1a0de~        2888           1            252. sun         FALSE        stayed
## # ... with 9,990 more rows, and 1 more variable: review_score <dbl>
```
…
---

## Adding & replacing columns &#x2795;

We would like to create a new column for the **total price** of a booking, which 
is the product of `price_per_night` and `room_nights`. 

```r
bookings %>%
  mutate(total_price = price_per_night * room_nights)
```

```
## # A tibble: 10,000 x 9
##    booker_id property_id room_nights price_per_night checkin_day for_business status
##    <chr>           <dbl>       <dbl>           <dbl> <chr>       <lgl>        <chr> 
##  1 21593401~        2668           4            91.5 mon         FALSE        cance~
##  2 7f590fd6~        4656           5           107.  tue         FALSE        cance~
##  3 10f0f138~        4563           6            87.0 wed         FALSE        stayed
##  4 7b55021a~        4088           7            92.4 fri         FALSE        stayed
##  5 6694a79d~        2188           4           105.  tue         FALSE        stayed
##  6 d0358740~        4171           2           110.  fri         FALSE        cance~
##  7 944e568a~        2907           4           116.  fri         FALSE        stayed
##  8 95476c2e~        5141           4           111.  wed         FALSE        cance~
##  9 df235631~        1696           1           106.  wed         FALSE        stayed
## 10 ff610140~        1901           7            82.3 sat         FALSE        cance~
## # ... with 9,990 more rows, and 2 more variables: review_score <dbl>, total_price <dbl>
```
…
## Adding & replacing columns &#x2795;

We would like to create a new column for the **total price** of a booking, which 
is the product of `price_per_night` and `room_nights`. 

(Only show `price_per_night`, `room_nights`, `total_price`)

```r
bookings %>%
  mutate(total_price = price_per_night * room_nights) %>%
  select(price_per_night, room_nights, total_price) 
```

```
## # A tibble: 10,000 x 3
##    price_per_night room_nights total_price
##              <dbl>       <dbl>       <dbl>
##  1            91.5           4        366.
##  2           107.            5        533.
##  3            87.0           6        522.
##  4            92.4           7        647.
##  5           105.            4        419.
##  6           110.            2        220.
##  7           116.            4        465.
##  8           111.            4        446.
##  9           106.            1        106.
## 10            82.3           7        576.
## # ... with 9,990 more rows
```

---

## Adding & replacing columns &#x2795;

Replace the existing column `property_id` by transforming the original column 
from `character` into `factor`. 

```r
bookings %>%
  mutate(property_id = as.factor(property_id))
```

```
## # A tibble: 10,000 x 8
##    booker_id property_id room_nights price_per_night checkin_day for_business status
##    <chr>     <fct>             <dbl>           <dbl> <chr>       <lgl>        <chr> 
##  1 21593401~ 2668                  4            91.5 mon         FALSE        cance~
##  2 7f590fd6~ 4656                  5           107.  tue         FALSE        cance~
##  3 10f0f138~ 4563                  6            87.0 wed         FALSE        stayed
##  4 7b55021a~ 4088                  7            92.4 fri         FALSE        stayed
##  5 6694a79d~ 2188                  4           105.  tue         FALSE        stayed
##  6 d0358740~ 4171                  2           110.  fri         FALSE        cance~
##  7 944e568a~ 2907                  4           116.  fri         FALSE        stayed
##  8 95476c2e~ 5141                  4           111.  wed         FALSE        cance~
##  9 df235631~ 1696                  1           106.  wed         FALSE        stayed
## 10 ff610140~ 1901                  7            82.3 sat         FALSE        cance~
## # ... with 9,990 more rows, and 1 more variable: review_score <dbl>
```
…
- `mutate_at()`: select one or more columns to apply a function on with `vars()` helper function
- `mutate_if()`: apply a function to columns that fullfill a condition
- `mutate_all()`: apply a function to all columns

--

```r
# Overwrite existing colums whose names end with 'id'
bookings %>%
  mutate_at(vars(ends_with("id")), list(as.character))
```

```
## # A tibble: 10,000 x 8
##    booker_id property_id room_nights price_per_night checkin_day for_business status
##    <chr>     <chr>             <dbl>           <dbl> <chr>       <lgl>        <chr> 
##  1 21593401~ 2668                  4            91.5 mon         FALSE        cance~
##  2 7f590fd6~ 4656                  5           107.  tue         FALSE        cance~
##  3 10f0f138~ 4563                  6            87.0 wed         FALSE        stayed
##  4 7b55021a~ 4088                  7            92.4 fri         FALSE        stayed
##  5 6694a79d~ 2188                  4           105.  tue         FALSE        stayed
##  6 d0358740~ 4171                  2           110.  fri         FALSE        cance~
##  7 944e568a~ 2907                  4           116.  fri         FALSE        stayed
##  8 95476c2e~ 5141                  4           111.  wed         FALSE        cance~
##  9 df235631~ 1696                  1           106.  wed         FALSE        stayed
## 10 ff610140~ 1901                  7            82.3 sat         FALSE        cance~
## # ... with 9,990 more rows, and 1 more variable: review_score <dbl>
```
…
