Creating Visualizations with ggplot2
…
To generate our first `ggplot2` graph, we will use the "Gapminder" dataset which 
contains global health and economic data for 142 countries between 1952 and 2007 
in increments of 5 years.

.pull-left[

```r
library(dplyr)
library(gapminder)
gapminder
```

```
## # A tibble: 1,704 x 6
##    country continent  year lifeExp    pop
##    <fct>   <fct>     <int>   <dbl>  <int>
##  1 Afghan~ Asia       1952    28.8 8.43e6
##  2 Afghan~ Asia       1957    30.3 9.24e6
##  3 Afghan~ Asia       1962    32.0 1.03e7
##  4 Afghan~ Asia       1967    34.0 1.15e7
##  5 Afghan~ Asia       1972    36.1 1.31e7
##  6 Afghan~ Asia       1977    38.4 1.49e7
##  7 Afghan~ Asia       1982    39.9 1.29e7
##  8 Afghan~ Asia       1987    40.8 1.39e7
##  9 Afghan~ Asia       1992    41.7 1.63e7
## 10 Afghan~ Asia       1997    41.8 2.22e7
## # ... with 1,694 more rows, and 1 more variable:
## #   gdpPercap <dbl>
```
…
