Machine Learning with tidymodels
…
]

]

.right-column[

```r
library(AmesHousing)
(ames <- make_ames() %>% select(-matches("Qu")))
```

```
## # A tibble: 2,930 x 74
##    MS_SubClass MS_Zoning Lot_Frontage Lot_Area Street Alley Lot_Shape
##    <fct>       <fct>            <dbl>    <int> <fct>  <fct> <fct>    
##  1 One_Story_~ Resident~          141    31770 Pave   No_A~ Slightly~
##  2 One_Story_~ Resident~           80    11622 Pave   No_A~ Regular  
##  3 One_Story_~ Resident~           81    14267 Pave   No_A~ Slightly~
##  4 One_Story_~ Resident~           93    11160 Pave   No_A~ Regular  
##  5 Two_Story_~ Resident~           74    13830 Pave   No_A~ Slightly~
##  6 Two_Story_~ Resident~           78     9978 Pave   No_A~ Slightly~
##  7 One_Story_~ Resident~           41     4920 Pave   No_A~ Regular  
##  8 One_Story_~ Resident~           43     5005 Pave   No_A~ Slightly~
##  9 One_Story_~ Resident~           39     5389 Pave   No_A~ Slightly~
## 10 Two_Story_~ Resident~           60     7500 Pave   No_A~ Regular  
## # ... with 2,920 more rows, and 67 more variables:
## #   Land_Contour <fct>, Utilities <fct>, Lot_Config <fct>,
## #   Land_Slope <fct>, Neighborhood <fct>, Condition_1 <fct>,
## #   Condition_2 <fct>, Bldg_Type <fct>, House_Style <fct>,
## #   Overall_Cond <fct>, Year_Built <int>, Year_Remod_Add <int>,
## #   Roof_Style <fct>, Roof_Matl <fct>, Exterior_1st <fct>,
## #   Exterior_2nd <fct>, Mas_Vnr_Type <fct>, Mas_Vnr_Area <dbl>,
## #   Exter_Cond <fct>, Foundation <fct>, Bsmt_Cond <fct>,
## #   Bsmt_Exposure <fct>, BsmtFin_Type_1 <fct>, BsmtFin_SF_1 <dbl>,
…
---

## `predict()`

`predict()`: use a fitted model to predict new response values from data. Returns a tibble.

.pull-left[

```r
p <- predict(m, new_data = ames)
p
```

```
## # A tibble: 2,930 x 1
##      .pred
##      <dbl>
##  1 198255.
##  2 113367.
##  3 161731.
##  4 248964.
##  5 195239.
##  6 192447.
##  7 162736.
##  8 156258.
##  9 193787.
## 10 214786.
## # ... with 2,920 more rows
```
…
---

## `training()` and `testing()`

Extract training and testing sets from an `rsplit` object:

.pull-left[

```r
training(ames_split)
```

```
## # A tibble: 2,198 x 74
##    MS_SubClass MS_Zoning Lot_Frontage
##    <fct>       <fct>            <dbl>
##  1 One_Story_~ Resident~          141
##  2 One_Story_~ Resident~           80
##  3 One_Story_~ Resident~           81
##  4 One_Story_~ Resident~           93
##  5 Two_Story_~ Resident~           74
##  6 Two_Story_~ Resident~           78
##  7 One_Story_~ Resident~           41
##  8 Two_Story_~ Resident~           75
##  9 One_Story_~ Resident~            0
## 10 One_Story_~ Resident~           85
## # ... with 2,188 more rows, and 71 more
## #   variables: Lot_Area <int>, Street <fct>,
## #   Alley <fct>, Lot_Shape <fct>,
## #   Land_Contour <fct>, Utilities <fct>,
## #   Lot_Config <fct>, Land_Slope <fct>,
## #   Neighborhood <fct>, Condition_1 <fct>,
## #   Condition_2 <fct>, Bldg_Type <fct>,
## #   House_Style <fct>, Overall_Cond <fct>,
## #   Year_Built <int>, Year_Remod_Add <int>,
…
]

.pull-right[

```r
testing(ames_split)
```

```
## # A tibble: 732 x 74
##    MS_SubClass MS_Zoning Lot_Frontage
##    <fct>       <fct>            <dbl>
##  1 One_Story_~ Resident~           43
##  2 One_Story_~ Resident~           39
##  3 Two_Story_~ Resident~           60
##  4 Two_Story_~ Resident~           63
##  5 Two_Story_~ Resident~           47
##  6 One_Story_~ Resident~           88
##  7 One_Story_~ Resident~            0
##  8 Two_Story_~ Resident~           21
##  9 One_Story_~ Resident~           95
## 10 One_Story_~ Resident~           70
## # ... with 722 more rows, and 71 more
## #   variables: Lot_Area <int>, Street <fct>,
## #   Alley <fct>, Lot_Shape <fct>,
## #   Land_Contour <fct>, Utilities <fct>,
## #   Lot_Config <fct>, Land_Slope <fct>,
## #   Neighborhood <fct>, Condition_1 <fct>,
## #   Condition_2 <fct>, Bldg_Type <fct>,
## #   House_Style <fct>, Overall_Cond <fct>,
## #   Year_Built <int>, Year_Remod_Add <int>,
…
---

class: middle

## `expand_grid()`

`tidyr::expand_grid()`: takes one or more vectors, and returns a data frame 
holding all combinations of their values.

```r
expand_grid(cost_complexity = 10^(0:-5), min_n = seq(4,20,4))
```

```
## # A tibble: 30 x 2
##    cost_complexity min_n
##              <dbl> <dbl>
##  1             1       4
##  2             1       8
##  3             1      12
##  4             1      16
##  5             1      20
##  6             0.1     4
##  7             0.1     8
##  8             0.1    12
##  9             0.1    16
## 10             0.1    20
## # ... with 20 more rows
```
…
- `dt_res`: performance for each fold stored in list column `.metrics`

---

class: middle

```r
dt_res %>% 
  collect_metrics() %>%
  filter(.metric == "accuracy") %>%
  arrange(desc(mean))
```

```
## # A tibble: 30 x 7
##    cost_complexity tree_depth .metric  .estimator  mean     n std_err
##              <dbl>      <int> <chr>    <chr>      <dbl> <int>   <dbl>
##  1         0.00001          2 accuracy binary     0.66      5  0.0158
##  2         0.0001           2 accuracy binary     0.66      5  0.0158
##  3         0.001            2 accuracy binary     0.66      5  0.0158
##  4         0.01             2 accuracy binary     0.656     5  0.0142
##  5         0.00001          1 accuracy binary     0.643     5  0.0114
##  6         0.0001           1 accuracy binary     0.643     5  0.0114
##  7         0.001            1 accuracy binary     0.643     5  0.0114
##  8         0.01             1 accuracy binary     0.643     5  0.0114
##  9         0.1              1 accuracy binary     0.643     5  0.0114
## 10         0.1              2 accuracy binary     0.643     5  0.0114
## # ... with 20 more rows
```
…
## `bake()`

`bake()` transforms data with the prepped recipe

```r
recipe(Sale_Price ~ ., data = ames) %>%
  step_novel(all_nominal()) %>%
  step_zv(all_predictors()) %>%
  prep(training = training(ames_split)) %>%
* bake(new_data = testing(ames_split)) # or training(ames_split)
```

```
## # A tibble: 732 x 74
##    MS_SubClass MS_Zoning Lot_Frontage Lot_Area Street Alley Lot_Shape Land_Contour
##    <fct>       <fct>            <dbl>    <int> <fct>  <fct> <fct>     <fct>       
##  1 One_Story_~ Resident~           43     5005 Pave   No_A~ Slightly~ HLS         
##  2 One_Story_~ Resident~           39     5389 Pave   No_A~ Slightly~ Lvl         
##  3 Two_Story_~ Resident~           60     7500 Pave   No_A~ Regular   Lvl         
##  4 Two_Story_~ Resident~           63     8402 Pave   No_A~ Slightly~ Lvl         
##  5 Two_Story_~ Resident~           47    53504 Pave   No_A~ Moderate~ HLS         
##  6 One_Story_~ Resident~           88    11394 Pave   No_A~ Regular   Lvl         
##  7 One_Story_~ Resident~            0    11241 Pave   No_A~ Slightly~ Lvl         
##  8 Two_Story_~ Resident~           21     1680 Pave   No_A~ Regular   Lvl         
##  9 One_Story_~ Resident~           95    12182 Pave   No_A~ Regular   Lvl         
## 10 One_Story_~ Resident~           70    10171 Pave   No_A~ Slightly~ Lvl         
## # ... with 722 more rows, and 66 more variables: Utilities <fct>, Lot_Config <fct>,
## #   Land_Slope <fct>, Neighborhood <fct>, Condition_1 <fct>, Condition_2 <fct>,
## #   Bldg_Type <fct>, House_Style <fct>, Overall_Cond <fct>, Year_Built <int>,
## #   Year_Remod_Add <int>, Roof_Style <fct>, Roof_Matl <fct>, Exterior_1st <fct>,
## #   Exterior_2nd <fct>, Mas_Vnr_Type <fct>, Mas_Vnr_Area <dbl>, Exter_Cond <fct>,
## #   Foundation <fct>, Bsmt_Cond <fct>, Bsmt_Exposure <fct>, BsmtFin_Type_1 <fct>,
## #   BsmtFin_SF_1 <dbl>, BsmtFin_Type_2 <fct>, BsmtFin_SF_2 <dbl>, Bsmt_Unf_SF <dbl>,
## #   Total_Bsmt_SF <dbl>, Heating <fct>, Heating_QC <fct>, Central_Air <fct>,
## #   Electrical <fct>, First_Flr_SF <int>, Second_Flr_SF <int>, Gr_Liv_Area <int>,
…
```r
rec <- recipe(Sale_Price ~ ., data = ames) %>% 
    step_center(all_numeric()) %>% 
    step_scale(all_numeric())
rec %>% 
  prep(training = training(ames_split), 
*      retain = TRUE
  ) %>% 
* juice()
```

```
## # A tibble: 2,198 x 74
##    MS_SubClass MS_Zoning Lot_Frontage Lot_Area Street Alley Lot_Shape Land_Contour
##    <fct>       <fct>            <dbl>    <dbl> <fct>  <fct> <fct>     <fct>       
##  1 One_Story_~ Resident~        2.46   2.64    Pave   No_A~ Slightly~ Lvl         
##  2 One_Story_~ Resident~        0.658  0.185   Pave   No_A~ Regular   Lvl         
##  3 One_Story_~ Resident~        0.687  0.507   Pave   No_A~ Slightly~ Lvl         
##  4 One_Story_~ Resident~        1.04   0.128   Pave   No_A~ Regular   Lvl         
##  5 Two_Story_~ Resident~        0.480  0.454   Pave   No_A~ Slightly~ Lvl         
##  6 Two_Story_~ Resident~        0.598 -0.0156  Pave   No_A~ Slightly~ Lvl         
##  7 One_Story_~ Resident~       -0.496 -0.632   Pave   No_A~ Regular   Lvl         
##  8 Two_Story_~ Resident~        0.510 -0.0129  Pave   No_A~ Slightly~ Lvl         
##  9 One_Story_~ Resident~       -1.71  -0.259   Pave   No_A~ Slightly~ Lvl         
## 10 One_Story_~ Resident~        0.805  0.00851 Pave   No_A~ Regular   Lvl         
## # ... with 2,188 more rows, and 66 more variables: Utilities <fct>, Lot_Config <fct>,
## #   Land_Slope <fct>, Neighborhood <fct>, Condition_1 <fct>, Condition_2 <fct>,
## #   Bldg_Type <fct>, House_Style <fct>, Overall_Cond <fct>, Year_Built <dbl>,
## #   Year_Remod_Add <dbl>, Roof_Style <fct>, Roof_Matl <fct>, Exterior_1st <fct>,
## #   Exterior_2nd <fct>, Mas_Vnr_Type <fct>, Mas_Vnr_Area <dbl>, Exter_Cond <fct>,
## #   Foundation <fct>, Bsmt_Cond <fct>, Bsmt_Exposure <fct>, BsmtFin_Type_1 <fct>,
## #   BsmtFin_SF_1 <dbl>, BsmtFin_Type_2 <fct>, BsmtFin_SF_2 <dbl>, Bsmt_Unf_SF <dbl>,
## #   Total_Bsmt_SF <dbl>, Heating <fct>, Heating_QC <fct>, Central_Air <fct>,
## #   Electrical <fct>, First_Flr_SF <dbl>, Second_Flr_SF <dbl>, Gr_Liv_Area <dbl>,
…
